Checking the Applicability of a Poisson Test • simaerep
…
df_visit3$study_id <- "ae_per_visit: 0.05"

df_visit <- bind_rows(df_visit1, df_visit2, df_visit3)

df_site <- site_aggr(df_visit)

df_sim_sites <- sim_sites(df_site, df_visit)

df_visit

## # A tibble: 58,610 x 9
##    patnum site_number is_ur max_visit_mean max_visit_sd ae_per_visit_me… visit
##    <chr>  <chr>       <lgl>          <dbl>        <dbl>            <dbl> <int>
##  1 P0000… S0001       TRUE              20            4             0.25     1
##  2 P0000… S0001       TRUE              20            4             0.25     2
##  3 P0000… S0001       TRUE              20            4             0.25     3
##  4 P0000… S0001       TRUE              20            4             0.25     4
##  5 P0000… S0001       TRUE              20            4             0.25     5
##  6 P0000… S0001       TRUE              20            4             0.25     6
##  7 P0000… S0001       TRUE              20            4             0.25     7
##  8 P0000… S0001       TRUE              20            4             0.25     8
##  9 P0000… S0001       TRUE              20            4             0.25     9
## 10 P0000… S0001       TRUE              20            4             0.25    10
## # … with 58,600 more rows, and 2 more variables: n_ae <int>, study_id <chr>

df_site

## # A tibble: 300 x 6
##    study_id site_number n_patients visit_med75 n_pat_with_med75 mean_ae_site_me…
##    <chr>    <chr>            <int>       <dbl>            <dbl>            <dbl>
##  1 ae_per_… S0001               10          16                8             3.5 
##  2 ae_per_… S0002               10          14                9             2.78
##  3 ae_per_… S0003               10          15                9             4.22
##  4 ae_per_… S0004               10          14                9             3.11
##  5 ae_per_… S0005               10          15                9             4   
##  6 ae_per_… S0006               10          16               10             4.7 
##  7 ae_per_… S0007               10          16                9             5   
##  8 ae_per_… S0008               10          15               10             3.7 
##  9 ae_per_… S0009               10          16                9             3.78
## 10 ae_per_… S0010               10          14                9             2.56
## # … with 290 more rows

df_sim_sites

## # A tibble: 300 x 7
##    study_id site_number visit_med75 mean_ae_site_me… mean_ae_study_m…    pval
##    <chr>    <chr>             <dbl>            <dbl>            <dbl>   <dbl>
##  1 ae_per_… S0001                16            0.556            0.755 0.697  
##  2 ae_per_… S0002                17            0.625            0.791 0.840  
##  3 ae_per_… S0003                16            0.125            0.759 0.0367 
##  4 ae_per_… S0004                15            0                0.721 0.00547
##  5 ae_per_… S0005                15            0.375            0.717 0.394  
##  6 ae_per_… S0006                14            0.778            0.662 1      
##  7 ae_per_… S0007                15            0.444            0.717 0.429  
##  8 ae_per_… S0008                14            0.125            0.668 0.0745 
##  9 ae_per_… S0009                15            0.286            0.717 0.256  
## 10 ae_per_… S0010                16            1                0.751 1      
## # … with 290 more rows, and 1 more variable: prob_low <dbl>

Simulate Studies

sim_studies() reproduces each study a thousand times using bootstrap ressampling maintaining the number of patients and the visit_med75 of each site.

df_sim_studies <- sim_studies(df_visit, df_site,
                              parallel = TRUE,
                              poisson_test = TRUE,
                              prob_lower = TRUE,
                              .progress = FALSE)

df_sim_studies

## # A tibble: 30,000 x 8
##        r study_id site_number visit_med75 n_pat_with_med75 n_pat_study  pval
##    <dbl> <chr>    <chr>             <dbl>            <dbl>       <dbl> <dbl>
##  1     1 ae_per_… S0001                16                8         830 0.464
##  2     1 ae_per_… S0002                14                9         925 1    
##  3     1 ae_per_… S0003                15                9         887 0.195
##  4     1 ae_per_… S0004                14                9         925 1    
##  5     1 ae_per_… S0005                15                9         887 0.746
##  6     1 ae_per_… S0006                16               10         828 0.370
##  7     1 ae_per_… S0007                16                9         829 0.414
##  8     1 ae_per_… S0008                15               10         886 0.627
##  9     1 ae_per_… S0009                16                9         829 1    
## 10     1 ae_per_… S0010                14                9         925 1    
## # … with 29,990 more rows, and 1 more variable: prob_low <dbl>

Check p-value Probabilities

get_ecd_values() uses the p-value distribution in the dataframe returned from sim_studies() to train a empirical cumulative distribution function for each study which is then used to calculate the probability of a specific p-value or lower from the poisson.test p-value returned from sim_sites()

df_check_pval <- get_ecd_values(df_sim_studies, df_sim_sites, val_str = "pval")

df_check_pval

## # A tibble: 300 x 8
##    study_id site_number visit_med75 mean_ae_site_me… mean_ae_study_m…    pval
##    <chr>    <chr>             <dbl>            <dbl>            <dbl>   <dbl>
##  1 ae_per_… S0001                16            0.556            0.755 0.697  
##  2 ae_per_… S0002                17            0.625            0.791 0.840  
##  3 ae_per_… S0003                16            0.125            0.759 0.0367 
##  4 ae_per_… S0004                15            0                0.721 0.00547
##  5 ae_per_… S0005                15            0.375            0.717 0.394  
##  6 ae_per_… S0006                14            0.778            0.662 1      
##  7 ae_per_… S0007                15            0.444            0.717 0.429  
##  8 ae_per_… S0008                14            0.125            0.668 0.0745 
##  9 ae_per_… S0009                15            0.286            0.717 0.256  
## 10 ae_per_… S0010                16            1                0.751 1      
## # … with 290 more rows, and 2 more variables: prob_low <dbl>, pval_ecd <dbl>
…
We can see that the p-values from poisson.test (x-axis) more or less match the probability with which they are represented in the resampled studies (y-axis), but there is some skewness to their relationship.

Perform Same Check on Bootstrapped Probabilities

df_check_pval <- get_ecd_values(df_sim_studies, df_sim_sites, val_str = "prob_low")

df_check_pval

## # A tibble: 300 x 8
##    study_id site_number visit_med75 mean_ae_site_me… mean_ae_study_m…    pval
##    <chr>    <chr>             <dbl>            <dbl>            <dbl>   <dbl>
##  1 ae_per_… S0001                16            0.556            0.755 0.697  
##  2 ae_per_… S0002                17            0.625            0.791 0.840  
##  3 ae_per_… S0003                16            0.125            0.759 0.0367 
##  4 ae_per_… S0004                15            0                0.721 0.00547
##  5 ae_per_… S0005                15            0.375            0.717 0.394  
##  6 ae_per_… S0006                14            0.778            0.662 1      
##  7 ae_per_… S0007                15            0.444            0.717 0.429  
##  8 ae_per_… S0008                14            0.125            0.668 0.0745 
##  9 ae_per_… S0009                15            0.286            0.717 0.256  
## 10 ae_per_… S0010                16            1                0.751 1      
## # … with 290 more rows, and 2 more variables: prob_low <dbl>,
## #   prob_low_ecd <dbl>
…
