Binary Event Over-Reporting - Subject Discontinuation • simaerep
…
Data Preparation

rawplus_studycomp contains one entry for each patient
that has discontinued. We interpret column mincreated_dts
to be the timestamp the discontinuation has been entered and therefore
to be a good proxy for the actual discontinuation date.

rawplus_studcomp

## # A tibble: 133 × 31
##    studyid        siteid invid scrnid subjid subjectid   datapagename datapageid
##    <chr>          <chr>  <chr> <chr>  <chr>  <chr>       <chr>        <chr>     
##  1 AA-AA-000-0000 58     0X091 020    1236   X0911236-0… Study Compl… 1         
##  2 AA-AA-000-0000 128    0X149 123    1023   X1491023-1… Study Compl… 1         
##  3 AA-AA-000-0000 155    0X125 058    1346   X1251346-0… Study Compl… 1         
##  4 AA-AA-000-0000 43     0X159 113    0760   X1590760-1… Study Compl… 1         
##  5 AA-AA-000-0000 127    0X043 058    0854   X0430854-0… Study Compl… 1         
##  6 AA-AA-000-0000 71     0X083 142    0561   X0830561-1… Study Compl… 1         
##  7 AA-AA-000-0000 140    0X161 091    0290   X1610290-0… Study Compl… 1         
##  8 AA-AA-000-0000 53     0X015 142    1127   X0151127-1… Study Compl… 1         
##  9 AA-AA-000-0000 71     0X083 020    1152   X0831152-0… Study Compl… 1         
## 10 AA-AA-000-0000 184    0X123 123    0720   X1230720-1… Study Compl… 1         
## # ℹ 123 more rows
## # ℹ 23 more variables: foldername <chr>, instancename <chr>, recordid <chr>,
## #   record_dt <chr>, recordposition <dbl>, mincreated_dts <chr>,
## #   maxupdated_dts <chr>, compyn <chr>, compreas <chr>, subjid_nsv <chr>,
## #   scrnid_nsv <chr>, subjinit_nsv <chr>, invid_nsv <chr>, subject_nsv <chr>,
## #   instanceid_nsv <dbl>, folder_nsv <chr>, folderseq_nsv <dbl>,
## #   compyn_std_nsv <chr>, compreas_std_nsv <chr>, compfu_nsv <chr>, …
…
