Comparing {simaerep} and Funnel Plot Performance • simaerep
…
dfSUBJ_fix <- get_SUBJ(df_portf_fix)
dfAE_fix <- get_AE(df_portf_fix)

dfInput <- gsm::AE_Map_Raw(list(dfSUBJ = dfSUBJ_fix$data[[1]], dfAE = dfAE_fix$data[[1]]))
dfInput

## # A tibble: 113 × 5
##    SubjectID SiteID Exposure Count  Rate
##    <chr>     <chr>     <int> <int> <dbl>
##  1 0001      4746         16     5 0.312
##  2 0002      4746         14     3 0.214
##  3 0003      4747         26     6 0.231
##  4 0004      4747         26    11 0.423
##  5 0005      4750         19     5 0.263
##  6 0006      4750         19     5 0.263
##  7 0007      4750         20     6 0.3  
##  8 0008      4750         18     3 0.167
##  9 0009      4815         25     3 0.12 
## 10 0010      4815         28     8 0.286
## # ℹ 103 more rows

dfTransformed <- gsm::Transform_Rate(
  dfInput,
  strNumeratorCol = "Count",
  strDenominatorCol = "Exposure"
  )
dfTransformed

## # A tibble: 44 × 4
##    GroupID Numerator Denominator Metric
##    <chr>       <int>       <int>  <dbl>
##  1 4746            8          30  0.267
##  2 4747           17          52  0.327
##  3 4750           19          76  0.25 
##  4 4815           40         153  0.261
##  5 4816            9          27  0.333
##  6 4817            5          31  0.161
##  7 4818            9          30  0.3  
##  8 4891           48         151  0.318
##  9 4893           15          40  0.375
## 10 4932           33         137  0.241
## # ℹ 34 more rows

dfAnalyzed <- gsm::Analyze_NormalApprox(dfTransformed)
dfAnalyzed

## # A tibble: 44 × 7
##    GroupID Numerator Denominator Metric OverallMetric Factor  Score
##    <chr>       <int>       <int>  <dbl>         <dbl>  <dbl>  <dbl>
##  1 4942            6          47  0.128         0.288   1.08 -2.34 
##  2 5166           17          95  0.179         0.288   1.08 -2.27 
##  3 4817            5          31  0.161         0.288   1.08 -1.51 
##  4 5229           12          58  0.207         0.288   1.08 -1.32 
##  5 4932           33         137  0.241         0.288   1.08 -1.18 
##  6 4986           13          58  0.224         0.288   1.08 -1.04 
##  7 4985           28         114  0.246         0.288   1.08 -0.972
##  8 5084            4          21  0.190         0.288   1.08 -0.954
##  9 5082            9          41  0.220         0.288   1.08 -0.938
## 10 4969           14          60  0.233         0.288   1.08 -0.907
## # ℹ 34 more rows

dfFlagged <- gsm::Flag_NormalApprox(dfAnalyzed, vThreshold = c(-3, -2, 2, 3))
dfFlagged

## # A tibble: 44 × 8
##    GroupID Numerator Denominator Metric OverallMetric Factor  Score  Flag
##    <chr>       <int>       <int>  <dbl>         <dbl>  <dbl>  <dbl> <dbl>
##  1 5194           66         182  0.363         0.288   1.08  2.13      1
##  2 4942            6          47  0.128         0.288   1.08 -2.34     -1
##  3 5166           17          95  0.179         0.288   1.08 -2.27     -1
##  4 4817            5          31  0.161         0.288   1.08 -1.51      0
##  5 5229           12          58  0.207         0.288   1.08 -1.32      0
##  6 4932           33         137  0.241         0.288   1.08 -1.18      0
##  7 4986           13          58  0.224         0.288   1.08 -1.04      0
##  8 4985           28         114  0.246         0.288   1.08 -0.972     0
##  9 5084            4          21  0.190         0.288   1.08 -0.954     0
## 10 5082            9          41  0.220         0.288   1.08 -0.938     0
## # ℹ 34 more rows

dfSummary <- gsm::Summarize(dfFlagged)
dfSummary

## # A tibble: 44 × 6
##    GroupID Numerator Denominator Metric Score  Flag
##    <chr>       <int>       <int>  <dbl> <dbl> <dbl>
##  1 5194           66         182  0.363  2.13     1
##  2 5166           17          95  0.179 -2.27    -1
##  3 4942            6          47  0.128 -2.34    -1
##  4 4968           10          24  0.417  1.34     0
##  5 4988           16          39  0.410  1.62     0
##  6 5168           11          27  0.407  1.31     0
##  7 5311            8          20  0.4    1.06     0
##  8 5273           16          40  0.4    1.50     0
##  9 4893           15          40  0.375  1.16     0
## 10 5083           16          44  0.364  1.06     0
## # ℹ 34 more rows

dfBounds <- gsm::Analyze_NormalApprox_PredictBounds(dfTransformed, vThreshold = c(-3, -2, 2, 3))
dfBounds

## # A tibble: 1,254 × 5
##    Threshold Denominator LogDenominator Numerator  Metric
##        <dbl>       <dbl>          <dbl>     <dbl>   <dbl>
##  1        -3        24.6           3.20    0.0927 0.00377
##  2        -3        25.2           3.23    0.189  0.00750
##  3        -3        25.9           3.25    0.287  0.0111 
##  4        -3        26.5           3.28    0.386  0.0145 
##  5        -3        27.2           3.30    0.485  0.0179 
##  6        -3        27.8           3.33    0.586  0.0211 
##  7        -3        28.5           3.35    0.688  0.0242 
##  8        -3        29.2           3.37    0.792  0.0272 
##  9        -3        29.8           3.39    0.895  0.0300 
## 10        -3        30.5           3.42    1.00   0.0328 
## # ℹ 1,244 more rows
…
