Comparing {simaerep} and {gsm} Performance • simaerep
…
dfSUBJ_fix <- get_SUBJ(df_portf_fix)
dfAE_fix <- get_AE(df_portf_fix)

dfInput <- gsm::AE_Map_Raw(list(dfSUBJ = dfSUBJ_fix$data[[1]], dfAE = dfAE_fix$data[[1]]))
dfInput

## # A tibble: 113 × 5
##    SubjectID SiteID Exposure Count  Rate
##    <chr>     <chr>     <int> <int> <dbl>
##  1 0001      4746         13     8 0.615
##  2 0002      4746         20     5 0.25 
##  3 0003      4747         27    10 0.370
##  4 0004      4747         26     9 0.346
##  5 0005      4750         19     7 0.368
##  6 0006      4750         19     4 0.211
##  7 0007      4750         20     3 0.15 
##  8 0008      4750         19     3 0.158
##  9 0009      4815          9     4 0.444
## 10 0010      4815         32    12 0.375
## # ℹ 103 more rows

dfTransformed <- gsm::Transform_Rate(
  dfInput,
  strNumeratorCol = "Count",
  strDenominatorCol = "Exposure"
  )
dfTransformed

## # A tibble: 44 × 4
##    GroupID Numerator Denominator Metric
##    <chr>       <int>       <int>  <dbl>
##  1 4746           13          33  0.394
##  2 4747           19          53  0.358
##  3 4750           17          77  0.221
##  4 4815           50         147  0.340
##  5 4816            6          27  0.222
##  6 4817           13          31  0.419
##  7 4818            7          30  0.233
##  8 4891           46         146  0.315
##  9 4893           14          40  0.35 
## 10 4932           42         135  0.311
## # ℹ 34 more rows

dfAnalyzed <- gsm::Analyze_NormalApprox(dfTransformed)
dfAnalyzed

## # A tibble: 44 × 7
##    GroupID Numerator Denominator Metric OverallMetric Factor  Score
##    <chr>       <int>       <int>  <dbl>         <dbl>  <dbl>  <dbl>
##  1 5084            2          21 0.0952         0.307   1.10 -2.00 
##  2 5168            8          44 0.182          0.307   1.10 -1.71 
##  3 4750           17          77 0.221          0.307   1.10 -1.56 
##  4 5080            4          23 0.174          0.307   1.10 -1.32 
##  5 5081            4          23 0.174          0.307   1.10 -1.32 
##  6 5111            6          31 0.194          0.307   1.10 -1.30 
##  7 5082           10          45 0.222          0.307   1.10 -1.17 
##  8 5311            4          20 0.2            0.307   1.10 -0.987
##  9 4942           12          50 0.24           0.307   1.10 -0.976
## 10 5273           10          42 0.238          0.307   1.10 -0.920
## # ℹ 34 more rows

dfFlagged <- gsm::Flag_NormalApprox(dfAnalyzed, vThreshold = c(-3, -2, 2, 3))
dfFlagged

## # A tibble: 44 × 8
##    GroupID Numerator Denominator Metric OverallMetric Factor  Score  Flag
##    <chr>       <int>       <int>  <dbl>         <dbl>  <dbl>  <dbl> <dbl>
##  1 5084            2          21 0.0952         0.307   1.10 -2.00     -1
##  2 5168            8          44 0.182          0.307   1.10 -1.71      0
##  3 4750           17          77 0.221          0.307   1.10 -1.56      0
##  4 5080            4          23 0.174          0.307   1.10 -1.32      0
##  5 5081            4          23 0.174          0.307   1.10 -1.32      0
##  6 5111            6          31 0.194          0.307   1.10 -1.30      0
##  7 5082           10          45 0.222          0.307   1.10 -1.17      0
##  8 5311            4          20 0.2            0.307   1.10 -0.987     0
##  9 4942           12          50 0.24           0.307   1.10 -0.976     0
## 10 5273           10          42 0.238          0.307   1.10 -0.920     0
## # ℹ 34 more rows

dfSummary <- gsm::Summarize(dfFlagged)
dfSummary

## # A tibble: 44 × 6
##    GroupID Numerator Denominator Metric  Score  Flag
##    <chr>       <int>       <int>  <dbl>  <dbl> <dbl>
##  1 5084            2          21 0.0952 -2.00     -1
##  2 5308           26          61 0.426   1.93      0
##  3 4817           13          31 0.419   1.30      0
##  4 4968           10          24 0.417   1.11      0
##  5 5224           10          24 0.417   1.11      0
##  6 4943           10          25 0.4     0.965     0
##  7 4746           13          33 0.394   1.04      0
##  8 5135            7          18 0.389   0.721     0
##  9 4988           14          37 0.378   0.902     0
## 10 5166           35          93 0.376   1.39      0
## # ℹ 34 more rows

dfBounds <- gsm::Analyze_NormalApprox_PredictBounds(dfTransformed, vThreshold = c(-3, -2, 2, 3))
dfBounds

## # A tibble: 1,258 × 5
##    Threshold Denominator LogDenominator Numerator   Metric
##        <dbl>       <dbl>          <dbl>     <dbl>    <dbl>
##  1        -3        22.4           3.11   0.00938 0.000419
##  2        -3        23.2           3.14   0.123   0.00533 
##  3        -3        23.9           3.17   0.239   0.0100  
##  4        -3        24.6           3.20   0.356   0.0145  
##  5        -3        25.4           3.23   0.475   0.0187  
##  6        -3        26.1           3.26   0.596   0.0228  
##  7        -3        26.8           3.29   0.718   0.0268  
##  8        -3        27.6           3.32   0.841   0.0305  
##  9        -3        28.3           3.34   0.966   0.0341  
## 10        -3        29.0           3.37   1.09    0.0376  
## # ℹ 1,248 more rows
…
df_sim_gsm_fix <- sim_ur_gsm(dfSUBJ_fix, dfAE_fix)

## Warning: There were 3095 warnings in `mutate()`.
## The first warning was:
## ℹ In argument: `z_i = ifelse(...)`.
## Caused by warning:
## ! There was 1 warning in `mutate()`.
## ℹ In argument: `z_0 = ifelse(...)`.
## Caused by warning in `sqrt()`:
## ! NaNs produced
## ℹ Run `dplyr::last_dplyr_warnings()` to see the 3094 remaining warnings.

df_sim_gsm_fix

## # A tibble: 129,966 × 5
##    study_id trans             siteid ur_rate  score
##    <chr>    <list>            <chr>    <dbl>  <dbl>
##  1 0001     <tibble [44 × 4]> 4746      0     1.04 
##  2 0001     <tibble [44 × 4]> 4746      0.1   0.580
##  3 0001     <tibble [44 × 4]> 4746      0.25 -0.120
##  4 0001     <tibble [44 × 4]> 4746      0.5  -1.27 
##  5 0001     <tibble [44 × 4]> 4746      0.75 -2.30 
##  6 0001     <tibble [44 × 4]> 4746      1    -3.18 
##  7 0001     <tibble [44 × 4]> 4747      0     0.780
##  8 0001     <tibble [44 × 4]> 4747      0.1   0.253
##  9 0001     <tibble [44 × 4]> 4747      0.25 -0.544
## 10 0001     <tibble [44 × 4]> 4747      0.5  -1.80 
## # ℹ 129,956 more rows
…
