Inframe Simulation Using Table Operations • simaerep
…
The inframe method includes this noisier data but does not compare
average event counts but event per visit rates. We can find
events_per_visit_site and
events_per_visit_study in df_eval. The latter
is the average event rate obtained in the simulation in which each
patient has been resampled according to its maximum visit.

aerep_inframe$df_eval

## # A tibble: 100 × 10
##    study_id site_number events events_per_visit_site visits n_pat
##    <chr>    <chr>        <dbl>                 <dbl>  <dbl> <int>
##  1 A        S0001           50                 0.279    179    10
##  2 A        S0002           59                 0.281    210    10
##  3 A        S0003           55                 0.291    189    10
##  4 A        S0004           59                 0.312    189    10
##  5 A        S0005           58                 0.297    195    10
##  6 A        S0006          100                 0.493    203    10
##  7 A        S0007           89                 0.408    218    10
##  8 A        S0008           95                 0.559    170    10
##  9 A        S0009          101                 0.518    195    10
## 10 A        S0010           87                 0.470    185    10
## # ℹ 90 more rows
## # ℹ 4 more variables: events_per_visit_study <dbl>, prob_low <dbl>,
## #   prob_low_adj <dbl>, prob_low_prob_ur <dbl>
…
