Introduction to {simaerep} • simaerep
…
In order to simulate patient data for an entire study we assume make the simplification that all sites have the same number of patients. Further we specify a fraction of sites that is under-reporting AEs

df_visit <- boot_sim_test_data_study(
  n_pat = 120,
  n_sites = 6,
  frac_site_with_ur = 0.4,
  ur_rate = 0.6,
  max_visit_mean = 20,
  max_visit_sd = 4,
  ae_per_visit_mean = 0.5
)

df_visit

## # A tibble: 2,336 x 8
##    patnum site_number is_ur max_visit_mean max_visit_sd ae_per_visit_me… visit
##    <chr>  <chr>       <lgl>          <dbl>        <dbl>            <dbl> <int>
##  1 P0000… S0001       TRUE              20            4              0.2     1
##  2 P0000… S0001       TRUE              20            4              0.2     2
##  3 P0000… S0001       TRUE              20            4              0.2     3
##  4 P0000… S0001       TRUE              20            4              0.2     4
##  5 P0000… S0001       TRUE              20            4              0.2     5
##  6 P0000… S0001       TRUE              20            4              0.2     6
##  7 P0000… S0001       TRUE              20            4              0.2     7
##  8 P0000… S0001       TRUE              20            4              0.2     8
##  9 P0000… S0001       TRUE              20            4              0.2     9
## 10 P0000… S0001       TRUE              20            4              0.2    10
## # … with 2,326 more rows, and 1 more variable: n_ae <int>
…
