Statistical Performance • simaerep
…
Grid

df_grid <- df_portf_flex %>%
  distinct(study_id, site_number) %>%
  # to reduce calculation time we only take every xth study
  filter(dense_rank(study_id)%%5 == 0) %>%
  mutate(ur_rate = list(c(0, 0.1, 0.25, 0.5, 0.75, 1))) %>%
  unnest(ur_rate)

df_grid

## # A tibble: 27,120 × 3
##    study_id site_number ur_rate
##    <chr>    <chr>         <dbl>
##  1 0005     4480           0   
##  2 0005     4480           0.1 
##  3 0005     4480           0.25
##  4 0005     4480           0.5 
##  5 0005     4480           0.75
##  6 0005     4480           1   
##  7 0005     4481           0   
##  8 0005     4481           0.1 
##  9 0005     4481           0.25
## 10 0005     4481           0.5 
## # ℹ 27,110 more rows
…
