(superseeded) simaerep Portfolio Performance • simaerep
…
  return(df)
}

df_data_grid <- tibble(
    ur_rate = c(0, 0.1, 0.25, 0.5, 0.75, 1),
    seed = list(seq(1, 500))
  ) %>%
 unnest(seed) %>%
 mutate(
   data = map2(ur_rate, seed, standard_sim)
 ) 

df_data_grid

## # A tibble: 3,000 × 3
##    ur_rate  seed data                
##      <dbl> <int> <list>              
##  1       0     1 <tibble [3,891 × 8]>
##  2       0     2 <tibble [3,892 × 8]>
##  3       0     3 <tibble [3,891 × 8]>
##  4       0     4 <tibble [3,866 × 8]>
##  5       0     5 <tibble [3,899 × 8]>
##  6       0     6 <tibble [3,887 × 8]>
##  7       0     7 <tibble [3,927 × 8]>
##  8       0     8 <tibble [3,869 × 8]>
##  9       0     9 <tibble [3,884 × 8]>
## 10       0    10 <tibble [3,884 × 8]>
## # ℹ 2,990 more rows
…
df_ae_per_vs

## # A tibble: 15,674 × 6
##    study_id site_number visit  n_ae ae_per_visit ls_study_ae_per_visit
##    <chr>    <chr>       <int> <int>        <dbl> <list>               
##  1 0001     0001           44    13        0.295 <dbl [43]>           
##  2 0001     0002           53    15        0.283 <dbl [43]>           
##  3 0001     0003           74    19        0.257 <dbl [43]>           
##  4 0001     0004          215    57        0.265 <dbl [43]>           
##  5 0001     0005           30     9        0.3   <dbl [43]>           
##  6 0001     0006           35    11        0.314 <dbl [43]>           
##  7 0001     0007           36    14        0.389 <dbl [43]>           
##  8 0001     0008          172    37        0.215 <dbl [43]>           
##  9 0001     0009           40    19        0.475 <dbl [43]>           
## 10 0001     0010          137    32        0.234 <dbl [43]>           
## # ℹ 15,664 more rows
…
