Address Usability Limits of Bootstrap Method • simaerep
…
- frac_sites_wit_ur: 0.05 - 0.75

- ur_rate: 0.05 - 1

set.seed(1)

df_grid <- tibble( ae_per_visit_mean = seq(0.05, 2, length.out = 10)) %>%
  mutate(frac_site_with_ur = list(seq(0.05, 0.75, length.out = 10))) %>%
  unnest(frac_site_with_ur) %>%
  mutate(ur_rate = list(seq(0.05, 1, length.out = 10)) ) %>%
  unnest(ur_rate) 

df_grid

## # A tibble: 1,000 × 3
##    ae_per_visit_mean frac_site_with_ur ur_rate
##                <dbl>             <dbl>   <dbl>
##  1              0.05              0.05   0.05 
##  2              0.05              0.05   0.156
##  3              0.05              0.05   0.261
##  4              0.05              0.05   0.367
##  5              0.05              0.05   0.472
##  6              0.05              0.05   0.578
##  7              0.05              0.05   0.683
##  8              0.05              0.05   0.789
##  9              0.05              0.05   0.894
## 10              0.05              0.05   1    
## # … with 990 more rows
…
df_grid

## # A tibble: 1,000 × 4
##    ae_per_visit_mean frac_site_with_ur ur_rate df_visit             
##                <dbl>             <dbl>   <dbl> <list>               
##  1              0.05              0.05   0.05  <tibble [19,459 × 8]>
##  2              0.05              0.05   0.156 <tibble [19,631 × 8]>
##  3              0.05              0.05   0.261 <tibble [19,234 × 8]>
##  4              0.05              0.05   0.367 <tibble [19,523 × 8]>
##  5              0.05              0.05   0.472 <tibble [19,518 × 8]>
##  6              0.05              0.05   0.578 <tibble [19,545 × 8]>
##  7              0.05              0.05   0.683 <tibble [19,503 × 8]>
##  8              0.05              0.05   0.789 <tibble [19,351 × 8]>
##  9              0.05              0.05   0.894 <tibble [19,473 × 8]>
## 10              0.05              0.05   1     <tibble [19,489 × 8]>
## # … with 990 more rows
…
df_grid <- df_grid %>%
  mutate( 
    df_visit = map2(df_visit, row_number(),
                    function(x,y) mutate(x, study_id = paste("S", y))),
    df_site = furrr::future_map(df_visit,
                                site_aggr,
                                .progress = FALSE,
                                .options = furrr_options(seed = TRUE)
                                )
  )

df_grid

## # A tibble: 1,000 × 5
##    ae_per_visit_mean frac_site_with_ur ur_rate df_visit              df_site 
##                <dbl>             <dbl>   <dbl> <list>                <list>  
##  1              0.05              0.05   0.05  <tibble [19,459 × 9]> <tibble>
##  2              0.05              0.05   0.156 <tibble [19,631 × 9]> <tibble>
##  3              0.05              0.05   0.261 <tibble [19,234 × 9]> <tibble>
##  4              0.05              0.05   0.367 <tibble [19,523 × 9]> <tibble>
##  5              0.05              0.05   0.472 <tibble [19,518 × 9]> <tibble>
##  6              0.05              0.05   0.578 <tibble [19,545 × 9]> <tibble>
##  7              0.05              0.05   0.683 <tibble [19,503 × 9]> <tibble>
##  8              0.05              0.05   0.789 <tibble [19,351 × 9]> <tibble>
##  9              0.05              0.05   0.894 <tibble [19,473 × 9]> <tibble>
## 10              0.05              0.05   1     <tibble [19,489 × 9]> <tibble>
## # … with 990 more rows
…
df_grid <- df_grid %>%
  mutate( df_sim_sites = furrr::future_map2(df_site, df_visit,
                                            sim_sites,
                                            r = 1000,
                                            poisson_test = TRUE,
                                            prob_lower = TRUE,
                                            .progress = FALSE,
                                            .options = furrr_options(seed = TRUE)
                                            )
  )

df_grid

## # A tibble: 1,000 × 6
##    ae_per_visit_mean frac_site_with_ur ur_rate df_visit df_site  df_sim_sites
##                <dbl>             <dbl>   <dbl> <list>   <list>   <list>      
##  1              0.05              0.05   0.05  <tibble> <tibble> <tibble>    
##  2              0.05              0.05   0.156 <tibble> <tibble> <tibble>    
##  3              0.05              0.05   0.261 <tibble> <tibble> <tibble>    
##  4              0.05              0.05   0.367 <tibble> <tibble> <tibble>    
##  5              0.05              0.05   0.472 <tibble> <tibble> <tibble>    
##  6              0.05              0.05   0.578 <tibble> <tibble> <tibble>    
##  7              0.05              0.05   0.683 <tibble> <tibble> <tibble>    
##  8              0.05              0.05   0.789 <tibble> <tibble> <tibble>    
##  9              0.05              0.05   0.894 <tibble> <tibble> <tibble>    
## 10              0.05              0.05   1     <tibble> <tibble> <tibble>    
## # … with 990 more rows
…
We apply eval_sites()
to balance the bootstrapped probabilities by the expected number of
false positives.

df_grid <- df_grid %>%
  mutate( df_eval = furrr::future_map(df_sim_sites,
                                      eval_sites,
                                      .progress = FALSE,
                                      .options = furrr_options(seed = TRUE)
                                      )
  )

df_grid

## # A tibble: 1,000 × 7
##    ae_per_visit_mean frac_site_with_ur ur_rate df_visit df_site  df_sim_sites
##                <dbl>             <dbl>   <dbl> <list>   <list>   <list>      
##  1              0.05              0.05   0.05  <tibble> <tibble> <tibble>    
##  2              0.05              0.05   0.156 <tibble> <tibble> <tibble>    
##  3              0.05              0.05   0.261 <tibble> <tibble> <tibble>    
##  4              0.05              0.05   0.367 <tibble> <tibble> <tibble>    
##  5              0.05              0.05   0.472 <tibble> <tibble> <tibble>    
##  6              0.05              0.05   0.578 <tibble> <tibble> <tibble>    
##  7              0.05              0.05   0.683 <tibble> <tibble> <tibble>    
##  8              0.05              0.05   0.789 <tibble> <tibble> <tibble>    
##  9              0.05              0.05   0.894 <tibble> <tibble> <tibble>    
## 10              0.05              0.05   1     <tibble> <tibble> <tibble>    
## # … with 990 more rows, and 1 more variable: df_eval <list>
…
df_grid <- df_grid %>%
  mutate(df_metric_pval = furrr::future_map2(df_visit, df_eval,
                                              get_metrics,
                                              method = "ptest"),
         df_metric_prob_low = furrr::future_map2(df_visit, df_eval,
                                                get_metrics,
                                                method = "bootstrap"),
         df_metric = map2(df_metric_pval, df_metric_prob_low, bind_rows)
         )

df_grid

## # A tibble: 1,000 × 10
##    ae_per_visit_mean frac_site_with_ur ur_rate df_visit df_site  df_sim_sites
##                <dbl>             <dbl>   <dbl> <list>   <list>   <list>      
##  1              0.05              0.05   0.05  <tibble> <tibble> <tibble>    
##  2              0.05              0.05   0.156 <tibble> <tibble> <tibble>    
##  3              0.05              0.05   0.261 <tibble> <tibble> <tibble>    
##  4              0.05              0.05   0.367 <tibble> <tibble> <tibble>    
##  5              0.05              0.05   0.472 <tibble> <tibble> <tibble>    
##  6              0.05              0.05   0.578 <tibble> <tibble> <tibble>    
##  7              0.05              0.05   0.683 <tibble> <tibble> <tibble>    
##  8              0.05              0.05   0.789 <tibble> <tibble> <tibble>    
##  9              0.05              0.05   0.894 <tibble> <tibble> <tibble>    
## 10              0.05              0.05   1     <tibble> <tibble> <tibble>    
## # … with 990 more rows, and 4 more variables: df_eval <list>,
## #   df_metric_pval <list>, df_metric_prob_low <list>, df_metric <list>

Plot

df_plot <- df_grid %>%
  select(ae_per_visit_mean, frac_site_with_ur, ur_rate, df_metric) %>%
  unnest(df_metric)

df_plot

## # A tibble: 4,000 × 14
##    ae_per_visit_mean frac_site_with_ur ur_rate study_id    tp    fn    tn    fp
##                <dbl>             <dbl>   <dbl> <chr>    <dbl> <dbl> <dbl> <dbl>
##  1              0.05              0.05   0.05  S 1          0     5    95     0
##  2              0.05              0.05   0.05  S 1          0     5    94     1
##  3              0.05              0.05   0.05  S 1          0     5    95     0
##  4              0.05              0.05   0.05  S 1          0     5    94     1
##  5              0.05              0.05   0.156 S 2          0     5    95     0
##  6              0.05              0.05   0.156 S 2          0     5    95     0
##  7              0.05              0.05   0.156 S 2          0     5    95     0
##  8              0.05              0.05   0.156 S 2          0     5    92     3
##  9              0.05              0.05   0.261 S 3          0     5    95     0
## 10              0.05              0.05   0.261 S 3          0     5    95     0
## # … with 3,990 more rows, and 6 more variables: p <dbl>, n <dbl>, P <dbl>,
## #   N <dbl>, prob_type <chr>, method <chr>
…
