Aggregate AEs by Days or Visit? • simaerep
…
pat0_vs <- df_visit %>%
  group_by(study_id, site_number, patnum) %>%
  filter(max(n_ae) == 0) %>%
  pull(patnum) %>%
  unique() %>%
  sort()

stopifnot(all(pat0_days == pat0_vs))

df_days 

## # A tibble: 3,220 × 5
##    study_id   site_number patnum   visit  n_ae
##    <chr>      <chr>       <chr>    <dbl> <dbl>
##  1 CO-101-001 001         01001001    43     1
##  2 CO-101-001 001         01001001    44     2
##  3 CO-101-001 001         01001001   107     3
##  4 CO-101-001 001         01001001   124     4
##  5 CO-101-001 001         01001001   134     5
##  6 CO-101-001 001         01001001   141     6
##  7 CO-101-001 001         01001001   156     8
##  8 CO-101-001 001         01001001   184    10
##  9 CO-101-001 001         01001001   240    13
## 10 CO-101-001 001         01001001   241    14
## # ℹ 3,210 more rows
…
## Warning in exp_implicit_missing_visits(df_visit, event_names): implicitly
## missing visit numbers detected and corrected

to silence the warning we can use check df_visit() which
is also called internally by all other functions accepting
df_visit as an argument.

df_days <- simaerep:::check_df_visit(df_days)

## Warning in exp_implicit_missing_visits(df_visit, event_names): implicitly
## missing visit numbers detected and corrected

df_days

## # A tibble: 57,873 × 5
##    study_id   site_number patnum   visit  n_ae
##    <chr>      <chr>       <chr>    <dbl> <dbl>
##  1 CO-101-001 001         01001001     5     0
##  2 CO-101-001 001         01001001     6     0
##  3 CO-101-001 001         01001001     7     0
##  4 CO-101-001 001         01001001     8     0
##  5 CO-101-001 001         01001001     9     0
##  6 CO-101-001 001         01001001    10     0
##  7 CO-101-001 001         01001001    11     0
##  8 CO-101-001 001         01001001    12     0
##  9 CO-101-001 001         01001001    13     0
## 10 CO-101-001 001         01001001    14     0
## # ℹ 57,863 more rows
…
