Get Portfolio Configuration — get_config • simaerep
…
df_portf <- sim_test_data_portfolio(df_config)

df_portf
#> # A tibble: 3,792 × 8
#>    study_id ae_per_visit_mean site_number max_visit_sd max_visit_mean patnum
#>    <chr>                <dbl> <chr>              <dbl>          <dbl> <chr> 
#>  1 0001                 0.400 0001                4.61           18.8 0001  
#>  2 0001                 0.400 0001                4.61           18.8 0001  
#>  3 0001                 0.400 0001                4.61           18.8 0001  
#>  4 0001                 0.400 0001                4.61           18.8 0001  
#>  5 0001                 0.400 0001                4.61           18.8 0001  
#>  6 0001                 0.400 0001                4.61           18.8 0001  
#>  7 0001                 0.400 0001                4.61           18.8 0001  
#>  8 0001                 0.400 0001                4.61           18.8 0001  
#>  9 0001                 0.400 0001                4.61           18.8 0001  
#> 10 0001                 0.400 0001                4.61           18.8 0001  
#> # ℹ 3,782 more rows
#> # ℹ 2 more variables: visit <int>, n_ae <int>

df_scen <- sim_ur_scenarios(df_portf,
                            extra_ur_sites = 2,
                            ur_rate = c(0.5, 1))
#> aggregating site level
#> prepping for simulation
#> generating scenarios
#> getting under-reporting stats
#> evaluating stats

df_scen
#> # A tibble: 140 × 14
#>    study_id site_number extra_ur_sites frac_pat_with_ur ur_rate n_pat
#>    <chr>    <chr>                <dbl>            <dbl>   <dbl> <int>
#>  1 0001     0001                     0           0          0      10
#>  2 0001     0001                     0           0.0989     0.5    10
#>  3 0001     0001                     0           0.0989     1      10
#>  4 0001     0001                     1           0.199      0.5    10
#>  5 0001     0001                     1           0.199      1      10
#>  6 0001     0001                     2           0.299      0.5    10
#>  7 0001     0001                     2           0.299      1      10
#>  8 0001     0002                     0           0          0      10
#>  9 0001     0002                     0           0.107      0.5    10
#> 10 0001     0002                     0           0.107      1      10
#> # ℹ 130 more rows
#> # ℹ 8 more variables: n_pat_with_med75 <dbl>, visit_med75 <dbl>,
#> #   mean_ae_site_med75 <dbl>, mean_ae_study_med75 <dbl>,
#> #   n_pat_with_med75_study <int>, prob_low <dbl>, prob_low_adj <dbl>,
#> #   prob_low_prob_ur <dbl>

df_perf <- get_portf_perf(df_scen)

df_perf
#> # A tibble: 27 × 5
#>      fpr thresh extra_ur_sites ur_rate   tpr
#>    <dbl>  <dbl>          <dbl>   <dbl> <dbl>
#>  1 0.001   0.53              0     0     0.2
#>  2 0.001   0.53              1     0     0.2
#>  3 0.001   0.53              2     0     0.2
#>  4 0.001   0.53              0     0.5   1  
#>  5 0.001   0.53              1     0.5   1  
#>  6 0.001   0.53              2     0.5   1  
#>  7 0.001   0.53              0     1     1  
#>  8 0.001   0.53              1     1     1  
#>  9 0.001   0.53              2     1     1  
#> 10 0.01    0.53              0     0     0.2
#> # ℹ 17 more rows
…
