Get Portfolio Performance — get_portf_perf • simaerep
…
df_portf <- sim_test_data_portfolio(df_config)

df_portf

#> # A tibble: 3,896 x 8
#>    study_id ae_per_visit_me… site_number max_visit_sd max_visit_mean patnum
#>    <chr>               <dbl> <chr>              <dbl>          <dbl> <chr> 
#>  1 0001                0.373 0001                3.79           19.2 0001  
#>  2 0001                0.373 0001                3.79           19.2 0001  
#>  3 0001                0.373 0001                3.79           19.2 0001  
#>  4 0001                0.373 0001                3.79           19.2 0001  
#>  5 0001                0.373 0001                3.79           19.2 0001  
#>  6 0001                0.373 0001                3.79           19.2 0001  
#>  7 0001                0.373 0001                3.79           19.2 0001  
#>  8 0001                0.373 0001                3.79           19.2 0001  
#>  9 0001                0.373 0001                3.79           19.2 0001  
#> 10 0001                0.373 0001                3.79           19.2 0001  
#> # … with 3,886 more rows, and 2 more variables: visit <int>, n_ae <int>

df_scen <- sim_ur_scenarios(df_portf,
                            extra_ur_sites = 2,
                            ur_rate = c(0.5, 1))

#> aggregating site level
#> prepping for simulation
#> generating scenarios
#> getting under-reporting stats
#> evaluating stats

df_scen

#> # A tibble: 140 x 14
#>    study_id site_number n_pat n_pat_with_med75 visit_med75 mean_ae_site_me…
#>    <chr>    <chr>       <int>            <int>       <dbl>            <dbl>
#>  1 0001     0001           10               10          15             5.1 
#>  2 0001     0001           10               10          15             2.55
#>  3 0001     0001           10               10          15             0   
#>  4 0001     0001           10               10          15             2.55
#>  5 0001     0001           10               10          15             0   
#>  6 0001     0001           10               10          15             2.55
#>  7 0001     0001           10               10          15             0   
#>  8 0001     0002           10               10          16             6.5 
#>  9 0001     0002           10               10          16             3.25
#> 10 0001     0002           10               10          16             0   
#> # … with 130 more rows, and 8 more variables: mean_ae_study_med75 <dbl>,
#> #   n_pat_with_med75_study <int>, extra_ur_sites <dbl>, frac_pat_with_ur <dbl>,
#> #   ur_rate <dbl>, prob_low <dbl>, prob_low_adj <dbl>, prob_low_prob_ur <dbl>

df_perf <- get_portf_perf(df_scen)

df_perf

#> # A tibble: 27 x 5
#>      fpr thresh extra_ur_sites ur_rate   tpr
#>    <dbl>  <dbl>          <dbl>   <dbl> <dbl>
#>  1 0.001  0.983              0     0    0.05
#>  2 0.001  0.983              1     0    0.05
#>  3 0.001  0.983              2     0    0.05
#>  4 0.001  0.983              0     0.5  0.95
#>  5 0.001  0.983              1     0.5  0.95
#>  6 0.001  0.983              2     0.5  0.9 
#>  7 0.001  0.983              0     1    1   
#>  8 0.001  0.983              1     1    1   
#>  9 0.001  0.983              2     1    1   
#> 10 0.01   0.963              0     0    0.05
#> # … with 17 more rows
…
