create orivisit object — orivisit • simaerep
…
df_visit$study_id <- "A"

visit <- orivisit(df_visit)

object.size(df_visit)
#> 125288 bytes
object.size(visit)
#> 2464 bytes

as.data.frame(visit)
#> # A tibble: 1,956 × 9
#>    patnum  site_number is_ur max_visit_mean max_visit_sd ae_per_visit_mean visit
#>    <chr>   <chr>       <lgl>          <dbl>        <dbl>             <dbl> <int>
#>  1 P000001 S0001       TRUE              20            4               0.2     1
#>  2 P000001 S0001       TRUE              20            4               0.2     2
#>  3 P000001 S0001       TRUE              20            4               0.2     3
#>  4 P000001 S0001       TRUE              20            4               0.2     4
#>  5 P000001 S0001       TRUE              20            4               0.2     5
#>  6 P000001 S0001       TRUE              20            4               0.2     6
#>  7 P000001 S0001       TRUE              20            4               0.2     7
#>  8 P000001 S0001       TRUE              20            4               0.2     8
#>  9 P000001 S0001       TRUE              20            4               0.2     9
#> 10 P000001 S0001       TRUE              20            4               0.2    10
#> # ℹ 1,946 more rows
#> # ℹ 2 more variables: n_ae <int>, study_id <chr>
…
