Simulate Under-Reporting Scenarios — sim_ur_scenarios • simaerep
…
df_portf <- sim_test_data_portfolio(df_config)

df_portf
#> # A tibble: 3,834 × 8
#>    study_id ae_per_visit_mean site_number max_visit_sd max_visit_mean patnum
#>    <chr>                <dbl> <chr>              <dbl>          <dbl> <chr> 
#>  1 0001                 0.366 0001                4.42             20 0001  
#>  2 0001                 0.366 0001                4.42             20 0001  
#>  3 0001                 0.366 0001                4.42             20 0001  
#>  4 0001                 0.366 0001                4.42             20 0001  
#>  5 0001                 0.366 0001                4.42             20 0001  
#>  6 0001                 0.366 0001                4.42             20 0001  
#>  7 0001                 0.366 0001                4.42             20 0001  
#>  8 0001                 0.366 0001                4.42             20 0001  
#>  9 0001                 0.366 0001                4.42             20 0001  
#> 10 0001                 0.366 0001                4.42             20 0001  
#> # ℹ 3,824 more rows
#> # ℹ 2 more variables: visit <int>, n_ae <int>

df_scen <- sim_ur_scenarios(df_portf,
                            extra_ur_sites = 2,
                            ur_rate = c(0.5, 1))
#> aggregating site level
#> prepping for simulation
#> generating scenarios
#> getting under-reporting stats
#> evaluating stats

df_scen
#> # A tibble: 140 × 14
#>    study_id site_number n_pat n_pat_with_med75 visit_med75 mean_ae_site_med75
#>    <chr>    <chr>       <int>            <int>       <dbl>              <dbl>
#>  1 0001     0001           10                9          16               5.44
#>  2 0001     0001           10                9          16               2.72
#>  3 0001     0001           10                9          16               0   
#>  4 0001     0001           10                9          16               2.72
#>  5 0001     0001           10                9          16               0   
#>  6 0001     0001           10                9          16               2.72
#>  7 0001     0001           10                9          16               0   
#>  8 0001     0002           10                9          16               4.89
#>  9 0001     0002           10                9          16               2.44
#> 10 0001     0002           10                9          16               0   
#> # ℹ 130 more rows
#> # ℹ 8 more variables: mean_ae_study_med75 <dbl>, n_pat_with_med75_study <int>,
#> #   extra_ur_sites <dbl>, frac_pat_with_ur <dbl>, ur_rate <dbl>,
#> #   prob_low <dbl>, prob_low_adj <dbl>, prob_low_prob_ur <dbl>

df_perf <- get_portf_perf(df_scen)

df_perf
#> # A tibble: 27 × 5
#>      fpr thresh extra_ur_sites ur_rate   tpr
#>    <dbl>  <dbl>          <dbl>   <dbl> <dbl>
#>  1 0.001  0.858              0     0    0.05
#>  2 0.001  0.858              1     0    0.05
#>  3 0.001  0.858              2     0    0.05
#>  4 0.001  0.858              0     0.5  1   
#>  5 0.001  0.858              1     0.5  1   
#>  6 0.001  0.858              2     0.5  1   
#>  7 0.001  0.858              0     1    1   
#>  8 0.001  0.858              1     1    1   
#>  9 0.001  0.858              2     1    1   
#> 10 0.01   0.857              0     0    0.05
#> # ℹ 17 more rows
…
