simulate study test data — sim_test_data_study • simaerep
…
# under-reporting outlier
df_visit <- sim_test_data_study(n_pat = 100, n_sites = 5,
    ratio_out = 0.2, factor_event_rate = -0.5)
df_visit[which(df_visit$patient_id == "P000001"),]
#> # A tibble: 23 × 9
#>    patient_id site_id is_out max_visit_mean max_visit_sd event_per_visit_mean
#>    <chr>      <chr>   <lgl>           <dbl>        <dbl>                <dbl>
#>  1 P000001    S0001   TRUE               20            4                0.176
#>  2 P000001    S0001   TRUE               20            4                0.176
#>  3 P000001    S0001   TRUE               20            4                0.176
#>  4 P000001    S0001   TRUE               20            4                0.176
#>  5 P000001    S0001   TRUE               20            4                0.176
#>  6 P000001    S0001   TRUE               20            4                0.176
#>  7 P000001    S0001   TRUE               20            4                0.176
#>  8 P000001    S0001   TRUE               20            4                0.176
#>  9 P000001    S0001   TRUE               20            4                0.176
#> 10 P000001    S0001   TRUE               20            4                0.176
#> # ℹ 13 more rows
#> # ℹ 3 more variables: visit <int>, n_event <dbl>, study_id <chr>

# constant event rates
sim_test_data_study(n_pat = 100, n_sites = 5, event_rates = 0.5)
#> # A tibble: 1,968 × 9
#>    patient_id site_id is_out max_visit_mean max_visit_sd event_per_visit_mean
#>    <chr>      <chr>   <lgl>           <dbl>        <dbl>                <dbl>
#>  1 P000001    S0001   FALSE              20            4                  0.5
#>  2 P000001    S0001   FALSE              20            4                  0.5
#>  3 P000001    S0001   FALSE              20            4                  0.5
#>  4 P000001    S0001   FALSE              20            4                  0.5
#>  5 P000001    S0001   FALSE              20            4                  0.5
#>  6 P000001    S0001   FALSE              20            4                  0.5
#>  7 P000001    S0001   FALSE              20            4                  0.5
#>  8 P000001    S0001   FALSE              20            4                  0.5
#>  9 P000001    S0001   FALSE              20            4                  0.5
#> 10 P000001    S0001   FALSE              20            4                  0.5
#> # ℹ 1,958 more rows
#> # ℹ 3 more variables: visit <int>, n_event <dbl>, study_id <chr>

# non-constant event rates for two event types
event_rates_ae <- c(0.7, rep(0.5, 8), rep(0.3, 5))
event_rates_pd <- c(0.3, rep(0.4, 6), rep(0.1, 5))

sim_test_data_study(
n_pat = 100,
n_sites = 5,
event_names = c("ae", "pd"),
event_rates = list(event_rates_ae, event_rates_pd)
)
#> # A tibble: 1,904 × 11
#>    patient_id site_id is_out max_visit_mean max_visit_sd ae_per_visit_mean
#>    <chr>      <chr>   <lgl>           <dbl>        <dbl>             <dbl>
#>  1 P000001    S0001   FALSE              20            4             0.443
#>  2 P000001    S0001   FALSE              20            4             0.443
#>  3 P000001    S0001   FALSE              20            4             0.443
#>  4 P000001    S0001   FALSE              20            4             0.443
#>  5 P000001    S0001   FALSE              20            4             0.443
#>  6 P000001    S0001   FALSE              20            4             0.443
#>  7 P000001    S0001   FALSE              20            4             0.443
#>  8 P000001    S0001   FALSE              20            4             0.443
#>  9 P000001    S0001   FALSE              20            4             0.443
#> 10 P000001    S0001   FALSE              20            4             0.443
#> # ℹ 1,894 more rows
#> # ℹ 5 more variables: pd_per_visit_mean <dbl>, visit <int>, n_ae <dbl>,
#> #   n_pd <dbl>, study_id <chr>
…
